…
  Likert |>
    Summarise_likert(
      q1,q2,q3,q4,q5,q6,q7,q8,q9,
      by =  ~ Sex + Age,
      grouping = list(
        FC.2 = c("q1", "q2"),
        FC.3 = "q3",
        FC.4 =  c("q4", "q5", "q6"),
        FC.5 = c("q7", "q8", "q9")
      ),
      include.order = TRUE
    ) 
```

    ## # A tibble: 54 × 9
    ##    .grouping Sex    Age   Item             `Strongly disagree` Disagree
    ##    <fct>     <fct>  <fct> <fct>                          <int>    <int>
    ##  1 FC.2      female >50   Nuts Seeds                         1        5
    ##  2 FC.2      female 18-30 Nuts Seeds                         6        9
    ##  3 FC.2      female 30-50 Nuts Seeds                         6        7
    ##  4 FC.2      female >50   Legumes                            0        5
    ##  5 FC.2      female 18-30 Legumes                            0       17
    ##  6 FC.2      female 30-50 Legumes                            0        6
    ##  7 FC.3      female >50   Vegetables Juice                   8        0
    ##  8 FC.3      female 18-30 Vegetables Juice                   9        0
    ##  9 FC.3      female 30-50 Vegetables Juice                   4        0
    ## 10 FC.4      female >50   Fruit                             10        9
    ## # ℹ 44 more rows
    ## # ℹ 3 more variables: `Neither agree nor disagree` <int>, Agree <int>,
    ## #   `Strongly agree` <int>
…
